605518 1577 470
690514 809808 504
768183 869568 525
881805 661995 525
888842 943726 507
563682 927851 525
386980 682042 509
369746 949976 525
283435 726943 509
821464 102068 509
344044 562535 470
489304 630646 509
654538 453899 509
140191 793113 509
526820 975900 525
855216 808621 525
33693 433329 449
938554 446468 525
687928 622675 509
67688 820334 509
602156 255457 470
25639 801731 509
408630 774938 509
825462 339025 509
394240 666982 509
98847 870275 525
857757 390727 525
185358 20913 383
671491 23892 509
874414 35421 525
560761 498550 470
284279 325303 389
394358 907809 525
454988 93245 449
23486 147200 375
36088 731112 509
225457 257344 443
13966 366214 443
82733 586850 470
386131 550031 470
605633 464620 470
743176 578735 509
257215 809891 509
275462 47635 443
363655 232697 441
505051 89371 449
920314 418924 525
465191 976597 525
588502 768887 509
160244 38731 383
830766 285294 509
952779 283920 525
583163 689676 509
781196 216758 509
107807 672815 509
491742 865334 525
662025 531767 509
381568 878447 525
392278 105120 443
923767 514498 525
657821 772276 504
302293 67701 443
492821 119046 449
407395 727525 509
88087 810393 509
659423 172614 509
989806 921927 507
718487 839747 525
346411 249410 441
952172 796470 525
531397 126432 470
785705 701755 504
364817 976340 525
268003 731005 509
471062 192599 449
585093 184778 470
562453 30729 470
561699 413272 470
849676 937618 476
875885 148088 525
37051 295902 443
262935 65236 443
168966 241373 443
594173 261232 470
822473 885386 525
370492 777594 509
321736 494427 449
526390 699365 509
988567 289740 525
936895 139877 525
908269 998526 507
370489 863213 525
608589 168456 470
365674 965458 525
407145 978338 525
332135 617881 470
750061 965247 525
609072 606738 403
144275 257531 443
803408 745139 468
984465 897058 507
906966 224892 525
130657 426202 449
146347 173356 383
104129 336153 443
748451 246083 509
874138 712644 525
904333 405918 525
252927 677658 509
206478 776832 509
644452 487304 509
137310 907708 525
383910 478432 449
938955 694175 525
258904 372553 441
129853 480430 449
815301 227204 509
876028 134203 525
938680 999502 507
311236 644789 509
61068 994210 525
969022 853078 507
905257 908430 445
864841 514478 525
672452 415205 509
219157 829850 509
249334 687563 509
472649 22146 449
159616 868397 525
67074 963652 525
435442 537984 470
752829 510993 509
781603 178815 509
349633 553780 470
226436 696543 509
739544 952669 525
157118 449055 449
718452 284681 509
778132 612447 509
688202 677481 398
147627 688275 509
521127 692910 509
556482 708041 509
337025 149483 443
339946 254015 407
146438 195382 383
832068 904229 525
227518 114050 386
131181 100619 354
1429 494975 449
449513 444124 369
458269 146405 449
82988 548125 470
518954 707216 509
113123 201536 383
356922 482417 449
845379 845087 401
835587 268200 509
39757 214450 383
434255 182395 449
496028 157762 449
594295 620389 447
27763 474190 449
669806 454729 509
878505 73031 525
308454 436114 449
426756 107985 449
490654 549829 470
662485 529035 509
14745 463793 449
28478 154062 375
588961 816092 509
896816 772375 525
199326 275237 443
376548 716381 509
170789 553488 470
782208 918400 525
915554 988131 507
319080 977092 525
956334 633288 525
463012 256614 449
863354 52069 525
422231 24108 449
69633 756152 509
493925 378937 449
574798 792971 509
118895 77192 354
738456 694406 504
983355 496314 525
408663 344006 441
872009 78018 525
71149 965710 525
284259 368145 441
486922 977071 525
764070 785512 468
291389 742559 509
795453 283376 509
757807 903881 525
183795 421471 449
203544 839141 525
839050 404697 525
67801 293016 443
521362 729202 509
101839 234609 443
163931 857521 525
878885 741864 525
483602 456865 444
861918 54419 525
580620 885810 525
998489 350169 525
122634 625759 470
37012 245576 443
378028 596644 470
895753 638498 525
344496 22467 443
